<svg width="25" height="25" viewBox="0 0 25 25" fill="none" xmlns="http://www.w3.org/2000/svg">
<path d="M19.2642 10.4072C19.2642 15.0619 15.4868 18.8379 10.8335 18.8379C6.17883 18.8379 2.40283 15.0619 2.40283 10.4072C2.40283 5.75256 6.17883 1.97656 10.8335 1.97656C15.4868 1.97656 19.2642 5.75256 19.2642 10.4072Z" stroke="#000000" stroke-width="3.056" stroke-miterlimit="10" stroke-linecap="round" stroke-linejoin="round"/>
<path d="M22.5923 22.9404L16.3896 16.7391" stroke="#000000" stroke-width="3.056" stroke-miterlimit="10" stroke-linecap="round" stroke-linejoin="round"/>
</svg>
